KM-101	KIEV	MOSCOW	06.02.2019	09:35	3h43m	58
KM-101	KIEV	MOSCOW	07.02.2019	09:35	3h43m	124
KM-101	KIEV	MOSCOW	08.02.2019	09:35	3h43m	40
KM-101	KIEV	MOSCOW	09.02.2019	09:35	3h43m	149
KM-101	KIEV	MOSCOW	10.02.2019	09:35	3h43m	115
KM-101	KIEV	MOSCOW	11.02.2019	09:35	3h43m	54
KM-101	KIEV	MOSCOW	12.02.2019	09:35	3h43m	12
KM-101	KIEV	MOSCOW	13.02.2019	09:35	3h43m	119
KM-101	KIEV	MOSCOW	14.02.2019	09:35	3h43m	76
KM-101	KIEV	MOSCOW	15.02.2019	09:35	3h43m	97
KM-101	KIEV	MOSCOW	16.02.2019	09:35	3h43m	41
KM-101	KIEV	MOSCOW	17.02.2019	09:35	3h43m	109
KM-101	KIEV	MOSCOW	18.02.2019	09:35	3h43m	47
KM-101	KIEV	MOSCOW	19.02.2019	09:35	3h43m	149
KM-101	KIEV	MOSCOW	20.02.2019	09:35	3h43m	33
KM-101	KIEV	MOSCOW	21.02.2019	09:35	3h43m	142
KM-101	KIEV	MOSCOW	22.02.2019	09:35	3h43m	113
KM-101	KIEV	MOSCOW	23.02.2019	09:35	3h43m	119
KM-101	KIEV	MOSCOW	24.02.2019	09:35	3h43m	59
KM-101	KIEV	MOSCOW	25.02.2019	09:35	3h43m	41
KM-101	KIEV	MOSCOW	26.02.2019	09:35	3h43m	81
KM-101	KIEV	MOSCOW	27.02.2019	09:35	3h43m	30
KM-101	KIEV	MOSCOW	28.02.2019	09:35	3h43m	11
KM-101	KIEV	MOSCOW	01.03.2019	09:35	3h43m	111
KM-101	KIEV	MOSCOW	02.03.2019	09:35	3h43m	66
KM-101	KIEV	MOSCOW	03.03.2019	09:35	3h43m	130
KL-127	KIEV	LONDON	06.02.2019	13:33	1h35m	105
KL-127	KIEV	LONDON	07.02.2019	13:33	1h35m	142
KL-127	KIEV	LONDON	08.02.2019	13:33	1h35m	90
KL-127	KIEV	LONDON	09.02.2019	13:33	1h35m	131
KL-127	KIEV	LONDON	10.02.2019	13:33	1h35m	123
KL-127	KIEV	LONDON	11.02.2019	13:33	1h35m	107
KL-127	KIEV	LONDON	12.02.2019	13:33	1h35m	132
KL-127	KIEV	LONDON	13.02.2019	13:33	1h35m	65
KL-127	KIEV	LONDON	14.02.2019	13:33	1h35m	109
KL-127	KIEV	LONDON	15.02.2019	13:33	1h35m	145
KL-127	KIEV	LONDON	16.02.2019	13:33	1h35m	113
KL-127	KIEV	LONDON	17.02.2019	13:33	1h35m	10
KL-127	KIEV	LONDON	18.02.2019	13:33	1h35m	146
KL-127	KIEV	LONDON	19.02.2019	13:33	1h35m	75
KL-127	KIEV	LONDON	20.02.2019	13:33	1h35m	36
KL-127	KIEV	LONDON	21.02.2019	13:33	1h35m	144
KL-127	KIEV	LONDON	22.02.2019	13:33	1h35m	90
KL-127	KIEV	LONDON	23.02.2019	13:33	1h35m	18
KL-127	KIEV	LONDON	24.02.2019	13:33	1h35m	29
KL-127	KIEV	LONDON	25.02.2019	13:33	1h35m	65
KL-127	KIEV	LONDON	26.02.2019	13:33	1h35m	43
KL-127	KIEV	LONDON	27.02.2019	13:33	1h35m	136
KL-127	KIEV	LONDON	28.02.2019	13:33	1h35m	96
KL-127	KIEV	LONDON	01.03.2019	13:33	1h35m	32
KL-127	KIEV	LONDON	02.03.2019	13:33	1h35m	84
KL-127	KIEV	LONDON	03.03.2019	13:33	1h35m	82
KB-153	KIEV	BERLIN	05.02.2019	13:26	2h09m	50
KB-153	KIEV	BERLIN	06.02.2019	13:26	2h09m	3
KB-153	KIEV	BERLIN	07.02.2019	13:26	2h09m	34
KB-153	KIEV	BERLIN	08.02.2019	13:26	2h09m	129
KB-153	KIEV	BERLIN	09.02.2019	13:26	2h09m	137
KB-153	KIEV	BERLIN	10.02.2019	13:26	2h09m	87
KB-153	KIEV	BERLIN	11.02.2019	13:26	2h09m	32
KB-153	KIEV	BERLIN	12.02.2019	13:26	2h09m	69
KB-153	KIEV	BERLIN	13.02.2019	13:26	2h09m	122
KB-153	KIEV	BERLIN	14.02.2019	13:26	2h09m	83
KB-153	KIEV	BERLIN	15.02.2019	13:26	2h09m	58
KB-153	KIEV	BERLIN	16.02.2019	13:26	2h09m	83
KB-153	KIEV	BERLIN	17.02.2019	13:26	2h09m	14
KB-153	KIEV	BERLIN	18.02.2019	13:26	2h09m	40
KB-153	KIEV	BERLIN	19.02.2019	13:26	2h09m	82
KB-153	KIEV	BERLIN	20.02.2019	13:26	2h09m	46
KB-153	KIEV	BERLIN	21.02.2019	13:26	2h09m	59
KB-153	KIEV	BERLIN	22.02.2019	13:26	2h09m	138
KB-153	KIEV	BERLIN	23.02.2019	13:26	2h09m	127
KB-153	KIEV	BERLIN	24.02.2019	13:26	2h09m	105
KB-153	KIEV	BERLIN	25.02.2019	13:26	2h09m	66
KB-153	KIEV	BERLIN	26.02.2019	13:26	2h09m	51
KB-153	KIEV	BERLIN	27.02.2019	13:26	2h09m	35
KB-153	KIEV	BERLIN	28.02.2019	13:26	2h09m	69
KB-153	KIEV	BERLIN	01.03.2019	13:26	2h09m	142
KB-153	KIEV	BERLIN	02.03.2019	13:26	2h09m	52
KM-179	KIEV	MADRID	06.02.2019	13:51	2h59m	128
KM-179	KIEV	MADRID	07.02.2019	13:51	2h59m	40
KM-179	KIEV	MADRID	08.02.2019	13:51	2h59m	8
KM-179	KIEV	MADRID	09.02.2019	13:51	2h59m	113
KM-179	KIEV	MADRID	10.02.2019	13:51	2h59m	109
KM-179	KIEV	MADRID	11.02.2019	13:51	2h59m	94
KM-179	KIEV	MADRID	12.02.2019	13:51	2h59m	23
KM-179	KIEV	MADRID	13.02.2019	13:51	2h59m	2
KM-179	KIEV	MADRID	14.02.2019	13:51	2h59m	26
KM-179	KIEV	MADRID	15.02.2019	13:51	2h59m	125
KM-179	KIEV	MADRID	16.02.2019	13:51	2h59m	58
KM-179	KIEV	MADRID	17.02.2019	13:51	2h59m	130
KM-179	KIEV	MADRID	18.02.2019	13:51	2h59m	59
KM-179	KIEV	MADRID	19.02.2019	13:51	2h59m	129
KM-179	KIEV	MADRID	20.02.2019	13:51	2h59m	45
KM-179	KIEV	MADRID	21.02.2019	13:51	2h59m	19
KM-179	KIEV	MADRID	22.02.2019	13:51	2h59m	130
KM-179	KIEV	MADRID	23.02.2019	13:51	2h59m	70
KM-179	KIEV	MADRID	24.02.2019	13:51	2h59m	144
KM-179	KIEV	MADRID	25.02.2019	13:51	2h59m	16
KM-179	KIEV	MADRID	26.02.2019	13:51	2h59m	104
KM-179	KIEV	MADRID	27.02.2019	13:51	2h59m	33
KM-179	KIEV	MADRID	28.02.2019	13:51	2h59m	37
KM-179	KIEV	MADRID	01.03.2019	13:51	2h59m	64
KM-179	KIEV	MADRID	02.03.2019	13:51	2h59m	140
KM-179	KIEV	MADRID	03.03.2019	13:51	2h59m	7
KR-205	KIEV	ROME	06.02.2019	08:03	2h50m	67
KR-205	KIEV	ROME	07.02.2019	08:03	2h50m	126
KR-205	KIEV	ROME	08.02.2019	08:03	2h50m	2
KR-205	KIEV	ROME	09.02.2019	08:03	2h50m	98
KR-205	KIEV	ROME	10.02.2019	08:03	2h50m	137
KR-205	KIEV	ROME	11.02.2019	08:03	2h50m	109
KR-205	KIEV	ROME	12.02.2019	08:03	2h50m	3
KR-205	KIEV	ROME	13.02.2019	08:03	2h50m	124
KR-205	KIEV	ROME	14.02.2019	08:03	2h50m	67
KR-205	KIEV	ROME	15.02.2019	08:03	2h50m	47
KR-205	KIEV	ROME	16.02.2019	08:03	2h50m	43
KR-205	KIEV	ROME	17.02.2019	08:03	2h50m	35
KR-205	KIEV	ROME	18.02.2019	08:03	2h50m	104
KR-205	KIEV	ROME	19.02.2019	08:03	2h50m	3
KR-205	KIEV	ROME	20.02.2019	08:03	2h50m	41
KR-205	KIEV	ROME	21.02.2019	08:03	2h50m	45
KR-205	KIEV	ROME	22.02.2019	08:03	2h50m	119
KR-205	KIEV	ROME	23.02.2019	08:03	2h50m	48
KR-205	KIEV	ROME	24.02.2019	08:03	2h50m	39
KR-205	KIEV	ROME	25.02.2019	08:03	2h50m	48
KR-205	KIEV	ROME	26.02.2019	08:03	2h50m	67
KR-205	KIEV	ROME	27.02.2019	08:03	2h50m	34
KR-205	KIEV	ROME	28.02.2019	08:03	2h50m	21
KR-205	KIEV	ROME	01.03.2019	08:03	2h50m	19
KR-205	KIEV	ROME	02.03.2019	08:03	2h50m	96
KR-205	KIEV	ROME	03.03.2019	08:03	2h50m	22
KB-231	KIEV	BARCELONA	05.02.2019	15:15	3h23m	77
KB-231	KIEV	BARCELONA	06.02.2019	15:15	3h23m	136
KB-231	KIEV	BARCELONA	07.02.2019	15:15	3h23m	11
KB-231	KIEV	BARCELONA	08.02.2019	15:15	3h23m	17
KB-231	KIEV	BARCELONA	09.02.2019	15:15	3h23m	141
KB-231	KIEV	BARCELONA	10.02.2019	15:15	3h23m	106
KB-231	KIEV	BARCELONA	11.02.2019	15:15	3h23m	88
KB-231	KIEV	BARCELONA	12.02.2019	15:15	3h23m	18
KB-231	KIEV	BARCELONA	13.02.2019	15:15	3h23m	131
KB-231	KIEV	BARCELONA	14.02.2019	15:15	3h23m	89
KB-231	KIEV	BARCELONA	15.02.2019	15:15	3h23m	66
KB-231	KIEV	BARCELONA	16.02.2019	15:15	3h23m	86
KB-231	KIEV	BARCELONA	17.02.2019	15:15	3h23m	23
KB-231	KIEV	BARCELONA	18.02.2019	15:15	3h23m	50
KB-231	KIEV	BARCELONA	19.02.2019	15:15	3h23m	104
KB-231	KIEV	BARCELONA	20.02.2019	15:15	3h23m	85
KB-231	KIEV	BARCELONA	21.02.2019	15:15	3h23m	99
KB-231	KIEV	BARCELONA	22.02.2019	15:15	3h23m	38
KB-231	KIEV	BARCELONA	23.02.2019	15:15	3h23m	87
KB-231	KIEV	BARCELONA	24.02.2019	15:15	3h23m	37
KB-231	KIEV	BARCELONA	25.02.2019	15:15	3h23m	6
KB-231	KIEV	BARCELONA	26.02.2019	15:15	3h23m	24
KB-231	KIEV	BARCELONA	27.02.2019	15:15	3h23m	99
KB-231	KIEV	BARCELONA	28.02.2019	15:15	3h23m	17
KB-231	KIEV	BARCELONA	01.03.2019	15:15	3h23m	55
KB-231	KIEV	BARCELONA	02.03.2019	15:15	3h23m	88
KP-257	KIEV	PARIS	06.02.2019	00:43	3h51m	73
KP-257	KIEV	PARIS	07.02.2019	00:43	3h51m	130
KP-257	KIEV	PARIS	08.02.2019	00:43	3h51m	51
KP-257	KIEV	PARIS	09.02.2019	00:43	3h51m	7
KP-257	KIEV	PARIS	10.02.2019	00:43	3h51m	149
KP-257	KIEV	PARIS	11.02.2019	00:43	3h51m	94
KP-257	KIEV	PARIS	12.02.2019	00:43	3h51m	127
KP-257	KIEV	PARIS	13.02.2019	00:43	3h51m	57
KP-257	KIEV	PARIS	14.02.2019	00:43	3h51m	57
KP-257	KIEV	PARIS	15.02.2019	00:43	3h51m	29
KP-257	KIEV	PARIS	16.02.2019	00:43	3h51m	22
KP-257	KIEV	PARIS	17.02.2019	00:43	3h51m	84
KP-257	KIEV	PARIS	18.02.2019	00:43	3h51m	141
KP-257	KIEV	PARIS	19.02.2019	00:43	3h51m	127
KP-257	KIEV	PARIS	20.02.2019	00:43	3h51m	44
KP-257	KIEV	PARIS	21.02.2019	00:43	3h51m	112
KP-257	KIEV	PARIS	22.02.2019	00:43	3h51m	129
KP-257	KIEV	PARIS	23.02.2019	00:43	3h51m	97
KP-257	KIEV	PARIS	24.02.2019	00:43	3h51m	10
KP-257	KIEV	PARIS	25.02.2019	00:43	3h51m	48
KP-257	KIEV	PARIS	26.02.2019	00:43	3h51m	37
KP-257	KIEV	PARIS	27.02.2019	00:43	3h51m	114
KP-257	KIEV	PARIS	28.02.2019	00:43	3h51m	102
KP-257	KIEV	PARIS	01.03.2019	00:43	3h51m	135
KP-257	KIEV	PARIS	02.03.2019	00:43	3h51m	149
KP-257	KIEV	PARIS	03.03.2019	00:43	3h51m	90
KM-283	KIEV	MILAN	06.02.2019	22:39	3h17m	82
KM-283	KIEV	MILAN	07.02.2019	22:39	3h17m	65
KM-283	KIEV	MILAN	08.02.2019	22:39	3h17m	104
KM-283	KIEV	MILAN	09.02.2019	22:39	3h17m	139
KM-283	KIEV	MILAN	10.02.2019	22:39	3h17m	26
KM-283	KIEV	MILAN	11.02.2019	22:39	3h17m	112
KM-283	KIEV	MILAN	12.02.2019	22:39	3h17m	49
KM-283	KIEV	MILAN	13.02.2019	22:39	3h17m	57
KM-283	KIEV	MILAN	14.02.2019	22:39	3h17m	94
KM-283	KIEV	MILAN	15.02.2019	22:39	3h17m	64
KM-283	KIEV	MILAN	16.02.2019	22:39	3h17m	55
KM-283	KIEV	MILAN	17.02.2019	22:39	3h17m	33
KM-283	KIEV	MILAN	18.02.2019	22:39	3h17m	3
KM-283	KIEV	MILAN	19.02.2019	22:39	3h17m	4
KM-283	KIEV	MILAN	20.02.2019	22:39	3h17m	95
KM-283	KIEV	MILAN	21.02.2019	22:39	3h17m	43
KM-283	KIEV	MILAN	22.02.2019	22:39	3h17m	37
KM-283	KIEV	MILAN	23.02.2019	22:39	3h17m	56
KM-283	KIEV	MILAN	24.02.2019	22:39	3h17m	92
KM-283	KIEV	MILAN	25.02.2019	22:39	3h17m	138
KM-283	KIEV	MILAN	26.02.2019	22:39	3h17m	66
KM-283	KIEV	MILAN	27.02.2019	22:39	3h17m	69
KM-283	KIEV	MILAN	28.02.2019	22:39	3h17m	41
KM-283	KIEV	MILAN	01.03.2019	22:39	3h17m	84
KM-283	KIEV	MILAN	02.03.2019	22:39	3h17m	136
KM-283	KIEV	MILAN	03.03.2019	22:39	3h17m	106
KV-309	KIEV	VILNOS	07.02.2019	04:51	3h32m	108
KV-309	KIEV	VILNOS	08.02.2019	04:51	3h32m	21
KV-309	KIEV	VILNOS	09.02.2019	04:51	3h32m	114
KV-309	KIEV	VILNOS	10.02.2019	04:51	3h32m	111
KV-309	KIEV	VILNOS	11.02.2019	04:51	3h32m	81
KV-309	KIEV	VILNOS	12.02.2019	04:51	3h32m	8
KV-309	KIEV	VILNOS	13.02.2019	04:51	3h32m	140
KV-309	KIEV	VILNOS	14.02.2019	04:51	3h32m	70
KV-309	KIEV	VILNOS	15.02.2019	04:51	3h32m	71
KV-309	KIEV	VILNOS	16.02.2019	04:51	3h32m	101
KV-309	KIEV	VILNOS	17.02.2019	04:51	3h32m	119
KV-309	KIEV	VILNOS	18.02.2019	04:51	3h32m	56
KV-309	KIEV	VILNOS	19.02.2019	04:51	3h32m	1
KV-309	KIEV	VILNOS	20.02.2019	04:51	3h32m	97
KV-309	KIEV	VILNOS	21.02.2019	04:51	3h32m	80
KV-309	KIEV	VILNOS	22.02.2019	04:51	3h32m	44
KV-309	KIEV	VILNOS	23.02.2019	04:51	3h32m	42
KV-309	KIEV	VILNOS	24.02.2019	04:51	3h32m	84
KV-309	KIEV	VILNOS	25.02.2019	04:51	3h32m	21
KV-309	KIEV	VILNOS	26.02.2019	04:51	3h32m	20
KV-309	KIEV	VILNOS	27.02.2019	04:51	3h32m	109
KV-309	KIEV	VILNOS	28.02.2019	04:51	3h32m	112
KV-309	KIEV	VILNOS	01.03.2019	04:51	3h32m	69
KV-309	KIEV	VILNOS	02.03.2019	04:51	3h32m	38
KV-309	KIEV	VILNOS	03.03.2019	04:51	3h32m	56
KV-309	KIEV	VILNOS	04.03.2019	04:51	3h32m	128
KG-335	KIEV	GDANSK	07.02.2019	08:40	1h18m	55
KG-335	KIEV	GDANSK	08.02.2019	08:40	1h18m	59
KG-335	KIEV	GDANSK	09.02.2019	08:40	1h18m	112
KG-335	KIEV	GDANSK	10.02.2019	08:40	1h18m	75
KG-335	KIEV	GDANSK	11.02.2019	08:40	1h18m	126
KG-335	KIEV	GDANSK	12.02.2019	08:40	1h18m	21
KG-335	KIEV	GDANSK	13.02.2019	08:40	1h18m	111
KG-335	KIEV	GDANSK	14.02.2019	08:40	1h18m	121
KG-335	KIEV	GDANSK	15.02.2019	08:40	1h18m	122
KG-335	KIEV	GDANSK	16.02.2019	08:40	1h18m	125
KG-335	KIEV	GDANSK	17.02.2019	08:40	1h18m	69
KG-335	KIEV	GDANSK	18.02.2019	08:40	1h18m	116
KG-335	KIEV	GDANSK	19.02.2019	08:40	1h18m	11
KG-335	KIEV	GDANSK	20.02.2019	08:40	1h18m	30
KG-335	KIEV	GDANSK	21.02.2019	08:40	1h18m	101
KG-335	KIEV	GDANSK	22.02.2019	08:40	1h18m	14
KG-335	KIEV	GDANSK	23.02.2019	08:40	1h18m	146
KG-335	KIEV	GDANSK	24.02.2019	08:40	1h18m	22
KG-335	KIEV	GDANSK	25.02.2019	08:40	1h18m	59
KG-335	KIEV	GDANSK	26.02.2019	08:40	1h18m	42
KG-335	KIEV	GDANSK	27.02.2019	08:40	1h18m	131
KG-335	KIEV	GDANSK	28.02.2019	08:40	1h18m	79
KG-335	KIEV	GDANSK	01.03.2019	08:40	1h18m	149
KG-335	KIEV	GDANSK	02.03.2019	08:40	1h18m	147
KG-335	KIEV	GDANSK	03.03.2019	08:40	1h18m	123
KG-335	KIEV	GDANSK	04.03.2019	08:40	1h18m	23
KW-361	KIEV	WARSHAWA	07.02.2019	14:57	3h46m	8
KW-361	KIEV	WARSHAWA	08.02.2019	14:57	3h46m	110
KW-361	KIEV	WARSHAWA	09.02.2019	14:57	3h46m	92
KW-361	KIEV	WARSHAWA	10.02.2019	14:57	3h46m	78
KW-361	KIEV	WARSHAWA	11.02.2019	14:57	3h46m	87
KW-361	KIEV	WARSHAWA	12.02.2019	14:57	3h46m	20
KW-361	KIEV	WARSHAWA	13.02.2019	14:57	3h46m	80
KW-361	KIEV	WARSHAWA	14.02.2019	14:57	3h46m	112
KW-361	KIEV	WARSHAWA	15.02.2019	14:57	3h46m	94
KW-361	KIEV	WARSHAWA	16.02.2019	14:57	3h46m	94
KW-361	KIEV	WARSHAWA	17.02.2019	14:57	3h46m	67
KW-361	KIEV	WARSHAWA	18.02.2019	14:57	3h46m	54
KW-361	KIEV	WARSHAWA	19.02.2019	14:57	3h46m	4
KW-361	KIEV	WARSHAWA	20.02.2019	14:57	3h46m	4
KW-361	KIEV	WARSHAWA	21.02.2019	14:57	3h46m	28
KW-361	KIEV	WARSHAWA	22.02.2019	14:57	3h46m	112
KW-361	KIEV	WARSHAWA	23.02.2019	14:57	3h46m	27
KW-361	KIEV	WARSHAWA	24.02.2019	14:57	3h46m	68
KW-361	KIEV	WARSHAWA	25.02.2019	14:57	3h46m	84
KW-361	KIEV	WARSHAWA	26.02.2019	14:57	3h46m	54
KW-361	KIEV	WARSHAWA	27.02.2019	14:57	3h46m	113
KW-361	KIEV	WARSHAWA	28.02.2019	14:57	3h46m	136
KW-361	KIEV	WARSHAWA	01.03.2019	14:57	3h46m	51
KW-361	KIEV	WARSHAWA	02.03.2019	14:57	3h46m	149
KW-361	KIEV	WARSHAWA	03.03.2019	14:57	3h46m	89
KW-361	KIEV	WARSHAWA	04.03.2019	14:57	3h46m	128
KB-387	KIEV	BRUCELE	07.02.2019	18:11	3h44m	81
KB-387	KIEV	BRUCELE	08.02.2019	18:11	3h44m	124
KB-387	KIEV	BRUCELE	09.02.2019	18:11	3h44m	126
KB-387	KIEV	BRUCELE	10.02.2019	18:11	3h44m	94
KB-387	KIEV	BRUCELE	11.02.2019	18:11	3h44m	35
KB-387	KIEV	BRUCELE	12.02.2019	18:11	3h44m	113
KB-387	KIEV	BRUCELE	13.02.2019	18:11	3h44m	61
KB-387	KIEV	BRUCELE	14.02.2019	18:11	3h44m	22
KB-387	KIEV	BRUCELE	15.02.2019	18:11	3h44m	80
KB-387	KIEV	BRUCELE	16.02.2019	18:11	3h44m	148
KB-387	KIEV	BRUCELE	17.02.2019	18:11	3h44m	100
KB-387	KIEV	BRUCELE	18.02.2019	18:11	3h44m	98
KB-387	KIEV	BRUCELE	19.02.2019	18:11	3h44m	67
KB-387	KIEV	BRUCELE	20.02.2019	18:11	3h44m	91
KB-387	KIEV	BRUCELE	21.02.2019	18:11	3h44m	56
KB-387	KIEV	BRUCELE	22.02.2019	18:11	3h44m	141
KB-387	KIEV	BRUCELE	23.02.2019	18:11	3h44m	89
KB-387	KIEV	BRUCELE	24.02.2019	18:11	3h44m	102
KB-387	KIEV	BRUCELE	25.02.2019	18:11	3h44m	116
KB-387	KIEV	BRUCELE	26.02.2019	18:11	3h44m	62
KB-387	KIEV	BRUCELE	27.02.2019	18:11	3h44m	88
KB-387	KIEV	BRUCELE	28.02.2019	18:11	3h44m	32
KB-387	KIEV	BRUCELE	01.03.2019	18:11	3h44m	139
KB-387	KIEV	BRUCELE	02.03.2019	18:11	3h44m	142
KB-387	KIEV	BRUCELE	03.03.2019	18:11	3h44m	43
KB-387	KIEV	BRUCELE	04.03.2019	18:11	3h44m	133
KA-413	KIEV	AMSTERDAM	06.02.2019	00:13	1h28m	12
KA-413	KIEV	AMSTERDAM	07.02.2019	00:13	1h28m	30
KA-413	KIEV	AMSTERDAM	08.02.2019	00:13	1h28m	62
KA-413	KIEV	AMSTERDAM	09.02.2019	00:13	1h28m	79
KA-413	KIEV	AMSTERDAM	10.02.2019	00:13	1h28m	66
KA-413	KIEV	AMSTERDAM	11.02.2019	00:13	1h28m	148
KA-413	KIEV	AMSTERDAM	12.02.2019	00:13	1h28m	92
KA-413	KIEV	AMSTERDAM	13.02.2019	00:13	1h28m	28
KA-413	KIEV	AMSTERDAM	14.02.2019	00:13	1h28m	124
KA-413	KIEV	AMSTERDAM	15.02.2019	00:13	1h28m	13
KA-413	KIEV	AMSTERDAM	16.02.2019	00:13	1h28m	22
KA-413	KIEV	AMSTERDAM	17.02.2019	00:13	1h28m	30
KA-413	KIEV	AMSTERDAM	18.02.2019	00:13	1h28m	10
KA-413	KIEV	AMSTERDAM	19.02.2019	00:13	1h28m	111
KA-413	KIEV	AMSTERDAM	20.02.2019	00:13	1h28m	75
KA-413	KIEV	AMSTERDAM	21.02.2019	00:13	1h28m	69
KA-413	KIEV	AMSTERDAM	22.02.2019	00:13	1h28m	105
KA-413	KIEV	AMSTERDAM	23.02.2019	00:13	1h28m	74
KA-413	KIEV	AMSTERDAM	24.02.2019	00:13	1h28m	31
KA-413	KIEV	AMSTERDAM	25.02.2019	00:13	1h28m	64
KA-413	KIEV	AMSTERDAM	26.02.2019	00:13	1h28m	14
KA-413	KIEV	AMSTERDAM	27.02.2019	00:13	1h28m	107
KA-413	KIEV	AMSTERDAM	28.02.2019	00:13	1h28m	104
KA-413	KIEV	AMSTERDAM	01.03.2019	00:13	1h28m	104
KA-413	KIEV	AMSTERDAM	02.03.2019	00:13	1h28m	63
KA-413	KIEV	AMSTERDAM	03.03.2019	00:13	1h28m	76
KM-439	KIEV	MINSK	06.02.2019	22:27	1h45m	58
KM-439	KIEV	MINSK	07.02.2019	22:27	1h45m	115
KM-439	KIEV	MINSK	08.02.2019	22:27	1h45m	148
KM-439	KIEV	MINSK	09.02.2019	22:27	1h45m	90
KM-439	KIEV	MINSK	10.02.2019	22:27	1h45m	105
KM-439	KIEV	MINSK	11.02.2019	22:27	1h45m	147
KM-439	KIEV	MINSK	12.02.2019	22:27	1h45m	37
KM-439	KIEV	MINSK	13.02.2019	22:27	1h45m	7
KM-439	KIEV	MINSK	14.02.2019	22:27	1h45m	18
KM-439	KIEV	MINSK	15.02.2019	22:27	1h45m	37
KM-439	KIEV	MINSK	16.02.2019	22:27	1h45m	63
KM-439	KIEV	MINSK	17.02.2019	22:27	1h45m	127
KM-439	KIEV	MINSK	18.02.2019	22:27	1h45m	45
KM-439	KIEV	MINSK	19.02.2019	22:27	1h45m	37
KM-439	KIEV	MINSK	20.02.2019	22:27	1h45m	2
KM-439	KIEV	MINSK	21.02.2019	22:27	1h45m	134
KM-439	KIEV	MINSK	22.02.2019	22:27	1h45m	142
KM-439	KIEV	MINSK	23.02.2019	22:27	1h45m	30
KM-439	KIEV	MINSK	24.02.2019	22:27	1h45m	15
KM-439	KIEV	MINSK	25.02.2019	22:27	1h45m	110
KM-439	KIEV	MINSK	26.02.2019	22:27	1h45m	150
KM-439	KIEV	MINSK	27.02.2019	22:27	1h45m	60
KM-439	KIEV	MINSK	28.02.2019	22:27	1h45m	135
KM-439	KIEV	MINSK	01.03.2019	22:27	1h45m	108
KM-439	KIEV	MINSK	02.03.2019	22:27	1h45m	32
KM-439	KIEV	MINSK	03.03.2019	22:27	1h45m	84
KR-465	KIEV	RIGA	06.02.2019	09:27	3h51m	117
KR-465	KIEV	RIGA	07.02.2019	09:27	3h51m	50
KR-465	KIEV	RIGA	08.02.2019	09:27	3h51m	133
KR-465	KIEV	RIGA	09.02.2019	09:27	3h51m	11
KR-465	KIEV	RIGA	10.02.2019	09:27	3h51m	134
KR-465	KIEV	RIGA	11.02.2019	09:27	3h51m	58
KR-465	KIEV	RIGA	12.02.2019	09:27	3h51m	61
KR-465	KIEV	RIGA	13.02.2019	09:27	3h51m	27
KR-465	KIEV	RIGA	14.02.2019	09:27	3h51m	27
KR-465	KIEV	RIGA	15.02.2019	09:27	3h51m	109
KR-465	KIEV	RIGA	16.02.2019	09:27	3h51m	116
KR-465	KIEV	RIGA	17.02.2019	09:27	3h51m	25
KR-465	KIEV	RIGA	18.02.2019	09:27	3h51m	70
KR-465	KIEV	RIGA	19.02.2019	09:27	3h51m	10
KR-465	KIEV	RIGA	20.02.2019	09:27	3h51m	74
KR-465	KIEV	RIGA	21.02.2019	09:27	3h51m	6
KR-465	KIEV	RIGA	22.02.2019	09:27	3h51m	108
KR-465	KIEV	RIGA	23.02.2019	09:27	3h51m	105
KR-465	KIEV	RIGA	24.02.2019	09:27	3h51m	5
KR-465	KIEV	RIGA	25.02.2019	09:27	3h51m	108
KR-465	KIEV	RIGA	26.02.2019	09:27	3h51m	19
KR-465	KIEV	RIGA	27.02.2019	09:27	3h51m	47
KR-465	KIEV	RIGA	28.02.2019	09:27	3h51m	9
KR-465	KIEV	RIGA	01.03.2019	09:27	3h51m	22
KR-465	KIEV	RIGA	02.03.2019	09:27	3h51m	10
KR-465	KIEV	RIGA	03.03.2019	09:27	3h51m	48
KT-491	KIEV	TALIN	07.02.2019	08:28	3h13m	58
KT-491	KIEV	TALIN	08.02.2019	08:28	3h13m	11
KT-491	KIEV	TALIN	09.02.2019	08:28	3h13m	120
KT-491	KIEV	TALIN	10.02.2019	08:28	3h13m	141
KT-491	KIEV	TALIN	11.02.2019	08:28	3h13m	37
KT-491	KIEV	TALIN	12.02.2019	08:28	3h13m	53
KT-491	KIEV	TALIN	13.02.2019	08:28	3h13m	137
KT-491	KIEV	TALIN	14.02.2019	08:28	3h13m	105
KT-491	KIEV	TALIN	15.02.2019	08:28	3h13m	29
KT-491	KIEV	TALIN	16.02.2019	08:28	3h13m	133
KT-491	KIEV	TALIN	17.02.2019	08:28	3h13m	87
KT-491	KIEV	TALIN	18.02.2019	08:28	3h13m	32
KT-491	KIEV	TALIN	19.02.2019	08:28	3h13m	113
KT-491	KIEV	TALIN	20.02.2019	08:28	3h13m	98
KT-491	KIEV	TALIN	21.02.2019	08:28	3h13m	104
KT-491	KIEV	TALIN	22.02.2019	08:28	3h13m	20
KT-491	KIEV	TALIN	23.02.2019	08:28	3h13m	64
KT-491	KIEV	TALIN	24.02.2019	08:28	3h13m	148
KT-491	KIEV	TALIN	25.02.2019	08:28	3h13m	127
KT-491	KIEV	TALIN	26.02.2019	08:28	3h13m	97
KT-491	KIEV	TALIN	27.02.2019	08:28	3h13m	36
KT-491	KIEV	TALIN	28.02.2019	08:28	3h13m	128
KT-491	KIEV	TALIN	01.03.2019	08:28	3h13m	114
KT-491	KIEV	TALIN	02.03.2019	08:28	3h13m	60
KT-491	KIEV	TALIN	03.03.2019	08:28	3h13m	143
KT-491	KIEV	TALIN	04.03.2019	08:28	3h13m	38
KS-517	KIEV	STOCKHOLM	07.02.2019	04:35	3h41m	111
KS-517	KIEV	STOCKHOLM	08.02.2019	04:35	3h41m	109
KS-517	KIEV	STOCKHOLM	09.02.2019	04:35	3h41m	9
KS-517	KIEV	STOCKHOLM	10.02.2019	04:35	3h41m	62
KS-517	KIEV	STOCKHOLM	11.02.2019	04:35	3h41m	55
KS-517	KIEV	STOCKHOLM	12.02.2019	04:35	3h41m	6
KS-517	KIEV	STOCKHOLM	13.02.2019	04:35	3h41m	61
KS-517	KIEV	STOCKHOLM	14.02.2019	04:35	3h41m	57
KS-517	KIEV	STOCKHOLM	15.02.2019	04:35	3h41m	95
KS-517	KIEV	STOCKHOLM	16.02.2019	04:35	3h41m	3
KS-517	KIEV	STOCKHOLM	17.02.2019	04:35	3h41m	23
KS-517	KIEV	STOCKHOLM	18.02.2019	04:35	3h41m	82
KS-517	KIEV	STOCKHOLM	19.02.2019	04:35	3h41m	87
KS-517	KIEV	STOCKHOLM	20.02.2019	04:35	3h41m	134
KS-517	KIEV	STOCKHOLM	21.02.2019	04:35	3h41m	38
KS-517	KIEV	STOCKHOLM	22.02.2019	04:35	3h41m	120
KS-517	KIEV	STOCKHOLM	23.02.2019	04:35	3h41m	100
KS-517	KIEV	STOCKHOLM	24.02.2019	04:35	3h41m	53
KS-517	KIEV	STOCKHOLM	25.02.2019	04:35	3h41m	118
KS-517	KIEV	STOCKHOLM	26.02.2019	04:35	3h41m	10
KS-517	KIEV	STOCKHOLM	27.02.2019	04:35	3h41m	6
KS-517	KIEV	STOCKHOLM	28.02.2019	04:35	3h41m	49
KS-517	KIEV	STOCKHOLM	01.03.2019	04:35	3h41m	109
KS-517	KIEV	STOCKHOLM	02.03.2019	04:35	3h41m	81
KS-517	KIEV	STOCKHOLM	03.03.2019	04:35	3h41m	141
KS-517	KIEV	STOCKHOLM	04.03.2019	04:35	3h41m	124
KZ-543	KIEV	ZASRANSK	05.02.2019	14:14	3h44m	26
KZ-543	KIEV	ZASRANSK	06.02.2019	14:14	3h44m	141
KZ-543	KIEV	ZASRANSK	07.02.2019	14:14	3h44m	18
KZ-543	KIEV	ZASRANSK	08.02.2019	14:14	3h44m	97
KZ-543	KIEV	ZASRANSK	09.02.2019	14:14	3h44m	66
KZ-543	KIEV	ZASRANSK	10.02.2019	14:14	3h44m	2
KZ-543	KIEV	ZASRANSK	11.02.2019	14:14	3h44m	148
KZ-543	KIEV	ZASRANSK	12.02.2019	14:14	3h44m	143
KZ-543	KIEV	ZASRANSK	13.02.2019	14:14	3h44m	142
KZ-543	KIEV	ZASRANSK	14.02.2019	14:14	3h44m	1
KZ-543	KIEV	ZASRANSK	15.02.2019	14:14	3h44m	31
KZ-543	KIEV	ZASRANSK	16.02.2019	14:14	3h44m	149
KZ-543	KIEV	ZASRANSK	17.02.2019	14:14	3h44m	54
KZ-543	KIEV	ZASRANSK	18.02.2019	14:14	3h44m	44
KZ-543	KIEV	ZASRANSK	19.02.2019	14:14	3h44m	110
KZ-543	KIEV	ZASRANSK	20.02.2019	14:14	3h44m	129
KZ-543	KIEV	ZASRANSK	21.02.2019	14:14	3h44m	46
KZ-543	KIEV	ZASRANSK	22.02.2019	14:14	3h44m	136
KZ-543	KIEV	ZASRANSK	23.02.2019	14:14	3h44m	44
KZ-543	KIEV	ZASRANSK	24.02.2019	14:14	3h44m	47
KZ-543	KIEV	ZASRANSK	25.02.2019	14:14	3h44m	52
KZ-543	KIEV	ZASRANSK	26.02.2019	14:14	3h44m	57
KZ-543	KIEV	ZASRANSK	27.02.2019	14:14	3h44m	146
KZ-543	KIEV	ZASRANSK	28.02.2019	14:14	3h44m	38
KZ-543	KIEV	ZASRANSK	01.03.2019	14:14	3h44m	62
KZ-543	KIEV	ZASRANSK	02.03.2019	14:14	3h44m	120
